%YAML 1.1
%TAG !u! tag:unity3d.com,2011:
--- !u!74 &7400000
AnimationClip:
  m_ObjectHideFlags: 0
  m_PrefabParentObject: {fileID: 0}
  m_PrefabInternal: {fileID: 0}
  m_Name: Character_WalkUpDown_C
  serializedVersion: 6
  m_Legacy: 0
  m_Compressed: 0
  m_UseHighQualityCurve: 1
  m_RotationCurves: []
  m_CompressedRotationCurves: []
  m_EulerCurves: []
  m_PositionCurves: []
  m_ScaleCurves: []
  m_FloatCurves: []
  m_PPtrCurves:
  - curve:
    - time: 0
      value: {fileID: 21300000, guid: 1c5c06f246625e145bba4e3a3d14dc64, type: 3}
    - time: 0.041666668
      value: {fileID: 21300000, guid: cd0b1d413bff8244b989204aa2ed6805, type: 3}
    - time: 0.083333336
      value: {fileID: 21300000, guid: 9b26207d536f4e643a1bdd22d0fc65ff, type: 3}
    - time: 0.125
      value: {fileID: 21300000, guid: b9cd79249376d034abd3bd6d2dad929d, type: 3}
    - time: 0.16666667
      value: {fileID: 21300000, guid: 8bb1c4d2dfce96a4394192b7bf4633f5, type: 3}
    - time: 0.20833334
      value: {fileID: 21300000, guid: c8749f912657c9343b1b7c9f0900fcb6, type: 3}
    - time: 0.25
      value: {fileID: 21300000, guid: 46ff857e114840947a103aac1869289a, type: 3}
    - time: 0.29166666
      value: {fileID: 21300000, guid: 04a131a59a8d0d04685943b221578479, type: 3}
    - time: 0.3333333
      value: {fileID: 21300000, guid: 913b8593364b2fa48b1123426daddcde, type: 3}
    - time: 0.37499997
      value: {fileID: 21300000, guid: 7131087a7a6626148a7e32246deeccb6, type: 3}
    - time: 0.41666663
      value: {fileID: 21300000, guid: 75bdbdbb1ee6a3046b530db20de3b304, type: 3}
    - time: 0.45833328
      value: {fileID: 21300000, guid: 74e9795d23634904e86ba3803e6fa19e, type: 3}
    - time: 0.49999994
      value: {fileID: 21300000, guid: 3b53b912c8f348e40b3f1b6d3b3b7a43, type: 3}
    - time: 0.5416666
      value: {fileID: 21300000, guid: e3a7e4247df527e44a710a9cc91c2fb6, type: 3}
    - time: 0.5833333
      value: {fileID: 21300000, guid: 8b8cd04ccd2b55047be714f6a3e7288c, type: 3}
    - time: 0.625
      value: {fileID: 21300000, guid: 299ee3849926a9b4292a1855a2f95a57, type: 3}
    - time: 0.6666667
      value: {fileID: 21300000, guid: 0d956d3b26deb61488538057c7944254, type: 3}
    - time: 0.7083334
      value: {fileID: 21300000, guid: 570d8b93e4a0a614e92a5e2deddc57c1, type: 3}
    - time: 0.75000006
      value: {fileID: 21300000, guid: 05f1c92cfcba2804a91b37f52716be57, type: 3}
    - time: 0.79166675
      value: {fileID: 21300000, guid: f0b2d15b65704404384ac7f243f6e749, type: 3}
    - time: 0.83333343
      value: {fileID: 21300000, guid: 72568dcf833f1474d8d75c5b7a2eb0df, type: 3}
    - time: 0.8750001
      value: {fileID: 21300000, guid: 79145c24f81f53e418af754ba4f3bbec, type: 3}
    - time: 0.9166668
      value: {fileID: 21300000, guid: 352391533f035a244a54a3950e1f8098, type: 3}
    attribute: m_Sprite
    path: 
    classID: 212
    script: {fileID: 0}
  m_SampleRate: 24
  m_WrapMode: 0
  m_Bounds:
    m_Center: {x: 0, y: 0, z: 0}
    m_Extent: {x: 0, y: 0, z: 0}
  m_ClipBindingConstant:
    genericBindings:
    - serializedVersion: 2
      path: 0
      attribute: 0
      script: {fileID: 0}
      typeID: 212
      customType: 23
      isPPtrCurve: 1
    pptrCurveMapping:
    - {fileID: 21300000, guid: 1c5c06f246625e145bba4e3a3d14dc64, type: 3}
    - {fileID: 21300000, guid: cd0b1d413bff8244b989204aa2ed6805, type: 3}
    - {fileID: 21300000, guid: 9b26207d536f4e643a1bdd22d0fc65ff, type: 3}
    - {fileID: 21300000, guid: b9cd79249376d034abd3bd6d2dad929d, type: 3}
    - {fileID: 21300000, guid: 8bb1c4d2dfce96a4394192b7bf4633f5, type: 3}
    - {fileID: 21300000, guid: c8749f912657c9343b1b7c9f0900fcb6, type: 3}
    - {fileID: 21300000, guid: 46ff857e114840947a103aac1869289a, type: 3}
    - {fileID: 21300000, guid: 04a131a59a8d0d04685943b221578479, type: 3}
    - {fileID: 21300000, guid: 913b8593364b2fa48b1123426daddcde, type: 3}
    - {fileID: 21300000, guid: 7131087a7a6626148a7e32246deeccb6, type: 3}
    - {fileID: 21300000, guid: 75bdbdbb1ee6a3046b530db20de3b304, type: 3}
    - {fileID: 21300000, guid: 74e9795d23634904e86ba3803e6fa19e, type: 3}
    - {fileID: 21300000, guid: 3b53b912c8f348e40b3f1b6d3b3b7a43, type: 3}
    - {fileID: 21300000, guid: e3a7e4247df527e44a710a9cc91c2fb6, type: 3}
    - {fileID: 21300000, guid: 8b8cd04ccd2b55047be714f6a3e7288c, type: 3}
    - {fileID: 21300000, guid: 299ee3849926a9b4292a1855a2f95a57, type: 3}
    - {fileID: 21300000, guid: 0d956d3b26deb61488538057c7944254, type: 3}
    - {fileID: 21300000, guid: 570d8b93e4a0a614e92a5e2deddc57c1, type: 3}
    - {fileID: 21300000, guid: 05f1c92cfcba2804a91b37f52716be57, type: 3}
    - {fileID: 21300000, guid: f0b2d15b65704404384ac7f243f6e749, type: 3}
    - {fileID: 21300000, guid: 72568dcf833f1474d8d75c5b7a2eb0df, type: 3}
    - {fileID: 21300000, guid: 79145c24f81f53e418af754ba4f3bbec, type: 3}
    - {fileID: 21300000, guid: 352391533f035a244a54a3950e1f8098, type: 3}
  m_AnimationClipSettings:
    serializedVersion: 2
    m_AdditiveReferencePoseClip: {fileID: 0}
    m_AdditiveReferencePoseTime: 0
    m_StartTime: 0
    m_StopTime: 0.9583335
    m_OrientationOffsetY: 0
    m_Level: 0
    m_CycleOffset: 0
    m_HasAdditiveReferencePose: 0
    m_LoopTime: 1
    m_LoopBlend: 0
    m_LoopBlendOrientation: 0
    m_LoopBlendPositionY: 0
    m_LoopBlendPositionXZ: 0
    m_KeepOriginalOrientation: 0
    m_KeepOriginalPositionY: 1
    m_KeepOriginalPositionXZ: 0
    m_HeightFromFeet: 0
    m_Mirror: 0
  m_EditorCurves: []
  m_EulerEditorCurves: []
  m_HasGenericRootTransform: 0
  m_HasMotionFloatCurves: 0
  m_GenerateMotionCurves: 0
  m_Events: []
